hanging,16.0
bringing,292.0
wednesday,14.0
kids,902.0
controversy,54.0
yahoo,93.0
radicalisation,84.0
want,605.0
wrong,506.0
fit,45.0
fix,23.0
hurting,11.0
clockmaking,11.0
olds,18.0
needed,80.0
feeling,66.0
kremlin,100.0
tech,161.0
saying,193.0
jenius,82.0
lots,98.0
nature,19.0
gceo,46.0
much,1294.0
spin,61.0
hai,15.0
hat,19.0
hav,12.0
crowd,54.0
crown,12.0
bottom,15.0
congratulations,113.0
mercurynews,17.0
disgrace,20.0
whoever,33.0
ustandwith,11.0
chair,11.0
favourite,11.0
jerk,23.0
minute,43.0
berita,13.0
celebrated,22.0
celebrates,178.0
climbs,19.0
address,13.0
following,91.0
seriously,181.0
hamed,82.0
spoken,62.0
concert,78.0
turned,63.0
opposite,11.0
spewing,13.0
west,37.0
photos,175.0
hashtag,748.0
single,70.0
technology,73.0
verified,17.0
euptbbouo0b,11.0
sums,25.0
huffpost,93.0
arrow,11.0
brazilian,11.0
abused,17.0
dirty,13.0
mundo,17.0
watched,85.0
cream,13.0
caused,26.0
hash,31.0
traumatized,12.0
company,129.0
bias,43.0
learn,178.0
huge,105.0
hugs,78.0
terri,16.0
paper,70.0
colleague,11.0
shocking,22.0
lipstick,16.0
research,14.0
saint,90.0
dismantling,32.0
islamophobes,28.0
understands,11.0
secular,11.0
insane,23.0
activists,17.0
empowering,17.0
retarded,14.0
bell,10.0
wc70ht,22.0
infamous,12.0
parents,212.0
n432451,14.0
couple,30.0
terrorists,111.0
atheists,16.0
influence,47.0
dpmaq,24.0
turkish,11.0
55fc4510e4b08820d9187013,11.0
video,565.0
obvious,46.0
harassing,32.0
234603,11.0
makes,439.0
maker,213.0
confidence,16.0
jamesearlrudder,14.0
comedy,28.0
intelligent,71.0
amerika,29.0
prosper,13.0
books,37.0
might,134.0
could,1085.0
enforcement,15.0
orchestrated,22.0
false,587.0
tonight,76.0
tapi,22.0
stuff,122.0
nuclear,64.0
honey,10.0
hateful,160.0
10153373880471130,11.0
newest,12.0
cruz,14.0
become,122.0
gymnastics,219.0
recognition,16.0
passion,43.0
4081618,18.0
blackness,59.0
letters,26.0
problem,132.0
details,66.0
compete,64.0
integrity,14.0
stinks,23.0
pointing,16.0
worth,105.0
cms,11.0
cmp,67.0
bro,89.0
nuts,18.0
innovative,32.0
kwghiz,19.0
reasonably,609.0
soundcloud,48.0
flawless,26.0
another,343.0
guilt,14.0
convenient,41.0
apologized,14.0
dgq5i,10.0
joven,20.0
runs,19.0
tone,13.0
tons,18.0
humble,16.0
thanks,561.0
night,149.0
attorney,15.0
isis,58.0
test,38.0
broke,38.0
battle,20.0
turns,61.0
gun,125.0
gut,11.0
guy,165.0
barbie,21.0
shares,25.0
shared,22.0
staff,15.0
teacher,530.0
sending,323.0
regardless,43.0
extra,17.0
fbi,22.0
chin,81.0
discussion,41.0
spreads,24.0
grandson,17.0
ended,26.0
still,960.0
touched,12.0
drop,41.0
yeah,149.0
challenges,11.0
year,823.0
wholeheartedly,11.0
tomorrow,59.0
caught,49.0
brains,14.0
transferred,16.0
wrigley,102.0
polaris,31.0
hoes,12.0
hurts,40.0
nile,58.0
food,41.0
death,47.0
fortune,29.0
exposed,65.0
exposes,20.0
glbn,13.0
snapchat,24.0
fools,63.0
poor,105.0
dubuque,124.0
poptart,16.0
since,180.0
religious,40.0
catchnews,12.0
decide,17.0
ass,212.0
inspired,177.0
inspires,41.0
criticize,65.0
anytime,13.0
dailymail,98.0
faire,34.0
bless,156.0
heavy,21.0
americas,11.0
american,665.0
toward,25.0
phobia,15.0
1264,57.0
competing,29.0
portrait,19.0
league,14.0
empty,12.0
grand,11.0
classmates,11.0
vitriol,15.0
obviously,49.0
gu,335.0
iloveu,51.0
questioned,38.0
sophiezendaha,11.0
lewat,10.0
silence,75.0
similar,67.0
department,28.0
smiles,18.0
tweeted,94.0
telling,80.0
jump,85.0
upsetting,13.0
reviveoldpost,28.0
meet,420.0
pulling,12.0
scoop,11.0
including,85.0
gymnasts,78.0
bin,12.0
wells,117.0
university,18.0
tully,38.0
timer,36.0
times,133.0
bitch,54.0
22681,14.0
bastard,18.0
nytimes,151.0
brought,231.0
wow,213.0
ayer,118.0
kicking,17.0
key,27.0
liberals,100.0
examiner,13.0
surface,26.0
northwest,14.0
http,14.0
45,13.0
40,24.0
battery,15.0
intersection,25.0
roth,126.0
demonstrates,13.0
duyne,24.0
gain,15.0
education,126.0
aug,29.0
sorry,348.0
deplorable,12.0
med,34.0
men,90.0
met,78.0
mex,132.0
joshua,13.0
room,46.0
movies,18.0
root,140.0
disassemble,13.0
vicious,18.0
third,13.0
jace,21.0
personal,44.0
gente,13.0
002590a5ba2d,11.0
untuk,41.0
fee,22.0
forgot,33.0
aids,23.0
begins,10.0
dawkins,206.0
grind,16.0
omg,99.0
asks,24.0
lovely,81.0
sooooo,13.0
ugly,91.0
cant,78.0
marco,123.0
e18e4b00310edf691da,20.0
meets,108.0
youre,77.0
nude,47.0
dean,11.0
deal,131.0
dead,52.0
dear,213.0
cemswj,37.0
selfie,75.0
editor,14.0
happening,100.0
father,373.0
aspx,13.0
talked,46.0
run,100.0
suspect,25.0
boy,1400.0
bom,83.0
boo,53.0
teenage,27.0
olympian,201.0
fuck,393.0
snl,44.0
sns,25.0
police,847.0
policy,31.0
lunch,20.0
showcasing,10.0
jumping,18.0
first,349.0
speaking,64.0
shocked,32.0
squad,136.0
201,79.0
200,11.0
treasure,86.0
get,1687.0
1yko3i3,13.0
gem,13.0
declared,12.0
seat,12.0
wonder,165.0
across,59.0
capable,14.0
wake,45.0
flavor,13.0
passionate,11.0
evac,11.0
gs,40.0
zero,173.0
africa,18.0
hour,40.0
sucks,29.0
remain,25.0
needs,318.0
acts,35.0
wires,57.0
perry,11.0
singapore,63.0
extraordinary,28.0
berniesanders,12.0
pnref,21.0
robohub,26.0
lnkd,25.0
foreign,13.0
point,178.0
century,20.0
1lnxgfu,14.0
foolish,21.0
candle,18.0
utterly,19.0
cooker,15.0
entire,86.0
copenhagen,111.0
edison,29.0
whitehouse,39.0
hisnameiscayden,179.0
healing,10.0
halloween,24.0
didnt,159.0
profile,24.0
alhamdulillah,11.0
omarghabra,11.0
765367369598312448,15.0
pakistani,17.0
sweden,11.0
knowledge,23.0
perfection,11.0
rage,20.0
blogspot,81.0
joke,131.0
equal,23.0
watches,18.0
welcoming,15.0
hubs,18.0
mobli,12.0
like,4373.0
success,127.0
chica,18.0
hair,239.0
456list,22.0
detail,56.0
direct,23.0
liberty,18.0
beck,12.0
excellent,43.0
ahme,15.0
jenharmassage,14.0
parallel,23.0
amid,11.0
55fb8e18e4b00310edf691da,24.0
xngaskpjen,14.0
jafari,39.0
days,123.0
daya,74.0
encouraging,24.0
insisted,671.0
prouder,13.0
bridge,13.0
thoroughly,11.0
ocid,32.0
644175344887574532,30.0
ketika,12.0
situations,11.0
mus,18.0
finger,28.0
hopefully,36.0
fault,34.0
expense,16.0
prepared,61.0
marginalised,62.0
grader,60.0
gave,205.0
p3qmbe,13.0
breaks,70.0
any1,21.0
officer,63.0
attacks,139.0
ahm,94.0
stuck,17.0
644337727052222465,24.0
amneh,40.0
nerdy,11.0
attn,55.0
nerds,21.0
picture,131.0
football,20.0
celebs,24.0
sponsors,24.0
trend,96.0
goes,233.0
1wlcgcd,87.0
3808,11.0
crisis,14.0
andy,11.0
prez,13.0
today,456.0
cases,11.0
figure,26.0
platform,24.0
invents,11.0
fought,42.0
icon,42.0
believing,11.0
1od8hkw,12.0
jokes,447.0
signs,25.0
quiet,20.0
period,54.0
case,345.0
casa,11.0
ironic,14.0
author,11.0
status,3318.0
bodies,19.0
polisi,26.0
tower,369.0
rising,25.0
deserve,507.0
treating,17.0
leads,24.0
sun,13.0
toes,12.0
israel,34.0
susan,19.0
isnt,44.0
somebody,32.0
oppressed,13.0
hill,11.0
prejudice,64.0
story,2320.0
leading,11.0
storm,48.0
store,37.0
cyber,98.0
king,48.0
kind,255.0
ckers,10.0
motivation,14.0
lying,29.0
ied,27.0
26l,23.0
emails,12.0
vdare,14.0
wrote,51.0
solo,15.0
sold,19.0
flight,16.0
kick,32.0
guilty,39.0
styl,25.0
shirt,137.0
daughters,50.0
higher,26.0
questions,72.0
refuses,14.0
pipeline,64.0
impressed,39.0
long,157.0
4ever,60.0
pt9beu,38.0
rally,69.0
meaning,13.0
allowing,11.0
1422329,76.0
explore,19.0
hardy,17.0
assumptions,14.0
hilton,63.0
impressing,15.0
ambition,16.0
knjprs,14.0
teenagers,16.0
wha,37.0
wht,15.0
hi,85.0
utter,16.0
schemaly,22.0
sumome,12.0
joy,154.0
job,392.0
joe,13.0
second,77.0
decent,18.0
responds,17.0
offers,82.0
stunning,20.0
guts,28.0
term,48.0
hosts,28.0
carried,12.0
herokuapp,10.0
carries,12.0
gymnastic,19.0
horrific,14.0
kinda,35.0
edisonmuckers,12.0
explained,19.0
spoke,37.0
successful,131.0
hurt,96.0
shehr0ze,26.0
complaining,16.0
damage,17.0
machine,18.0
wins,62.0
beeping,14.0
keeps,33.0
wing,44.0
handcuff,11.0
mongering,11.0
silver,18.0
represents,81.0
companies,38.0
heading,10.0
legs,19.0
wisdom,19.0
endure,30.0
responsible,26.0
professor,17.0
reactor,49.0
penang,108.0
mend,15.0
unfortunately,33.0
best,740.0
score,16.0
never,1164.0
khaled,13.0
life,644.0
chile,11.0
chill,25.0
babies,25.0
collections,15.0
birth,18.0
jika,45.0
people,3313.0
happy,410.0
melanin,12.0
liberal,198.0
khk,75.0
exist,68.0
posting,159.0
persecution,23.0
aeahw,30.0
whistlerhq,12.0
ufb1,30.0
current,30.0
persecuted,12.0
behalf,16.0
believes,18.0
date,24.0
data,13.0
unacceptable,30.0
records,42.0
million,186.0
discussing,30.0
vote,92.0
future,247.0
take,2282.0
tmblr,143.0
espn,15.0
5hitalia,17.0
expression,13.0
twin,29.0
anti,219.0
combined,13.0
cheers,17.0
morons,53.0
armchair,12.0
pol,13.0
moslem,14.0
ace,12.0
act,273.0
buying,25.0
taught,39.0
agree,123.0
gone,73.0
ac,12.0
ae,14.0
ad,32.0
ag,661.0
af,52.0
ai,18.0
ah,70.0
al,211.0
ap,20.0
ar,28.0
au,55.0
aw,43.0
a1,23.0
a3,13.0
dlvr,401.0
a7,50.0
a9,12.0
a8,24.0
backlash,25.0
beautiful,1754.0
stated,14.0
accept,44.0
states,154.0
notre,97.0
dukung,69.0
darling,11.0
sparked,359.0
imagine,94.0
immediate,28.0
obama,957.0
observatory,87.0
tpm,11.0
cover,49.0
set,153.0
sep,51.0
sex,28.0
see,1158.0
weaselzippers,43.0
community,95.0
worthless,14.0
fund,23.0
owed,12.0
jw9c,21.0
owes,15.0
levels,10.0
niece,25.0
victims,36.0
anything,347.0
alongside,20.0
dragplus,13.0
nieces,11.0
takedown,17.0
summit,41.0
send,175.0
sent,70.0
index,54.0
lmfao,12.0
engage,24.0
high,821.0
recreating,17.0
hobby,17.0
kiss,16.0
765309307093155842,36.0
isnameiscayden,11.0
jesus,46.0
soar,36.0
medal,131.0
destroy,39.0
hope,668.0
edition,68.0
injustice,51.0
email,77.0
ck,43.0
ci,19.0
ch,26.0
co,868.0
cm,19.0
cl,16.0
cc,94.0
ca,70.0
238709,58.0
1730999866,17.0
atlanta,68.0
bali,24.0
colour,67.0
moments,35.0
taunt,15.0
bigotry,160.0
newsworthy,17.0
notjustok,13.0
official,33.0
12541,12.0
teenvogue,14.0
celebration,13.0
employees,26.0
thursday,20.0
metropolitan,72.0
palestinian,22.0
iq,13.0
gedung,15.0
io,69.0
ia,53.0
suing,31.0
mayor,139.0
clockblocking,10.0
762436407704956929,14.0
jealous,160.0
okayafrica,30.0
crush,19.0
literally,99.0
families,36.0
spread,102.0
arab,44.0
8176702,27.0
portuguese,11.0
sends,31.0
phenomenal,105.0
comments,538.0
cheated,33.0
together,123.0
global,40.0
known,50.0
grape,67.0
zone,11.0
anonymous,19.0
supporting,128.0
appears,21.0
change,292.0
retweeted,88.0
live,922.0
breeds,13.0
dedicated,28.0
supremacy,17.0
court,16.0
goal,29.0
remember,294.0
cold,12.0
intellectual,14.0
half,92.0
hall,529.0
em,99.0
el,61.0
en,264.0
eh,17.0
ed,149.0
eu,36.0
et,45.0
ep,37.0
es,162.0
er,29.0
shown,54.0
opened,19.0
space,99.0
shows,384.0
gofundme,28.0
e2,19.0
120346,22.0
colombo,208.0
67e7q,14.0
thescoopblog,22.0
classic,38.0
embrace,21.0
kenya,17.0
theater,18.0
touch,33.0
socialflow,16.0
real,1606.0
phelps,28.0
read,471.0
digital,148.0
ajplus,48.0
hidup,14.0
conservative,50.0
debacle,20.0
greatly,13.0
gerod,97.0
peacehouseus,32.0
assume,36.0
minded,50.0
hahaha,29.0
ahead,45.0
vaughn99,13.0
launchgood,20.0
moahmed,14.0
idiocy,20.0
breitbart,406.0
fool,44.0
maestrouzy,14.0
pun,16.0
ask,175.0
cheering,25.0
thegrio,14.0
texans,29.0
viciously,29.0
pretty,174.0
liked,143.0
likes,32.0
else,173.0
governor,13.0
shar,76.0
sham,11.0
used,130.0
uses,17.0
user,36.0
765,35.0
praying,25.0
tick,25.0
barack,19.0
march,12.0
ellemagazine,20.0
8ze58i,15.0
nydailynews,16.0
12635,23.0
thru,42.0
visits,78.0
visite,17.0
heroine,10.0
humiliated,16.0
requires,14.0
ge,20.0
gd,94.0
ga,162.0
go,1405.0
gl,418.0
baron,11.0
punishing,24.0
download,15.0
click,38.0
products,22.0
cloud,18.0
rappler,22.0
alvarado,56.0
agenda,37.0
islamist,28.0
ece,55.0
conservatives,76.0
attack,176.0
ben,62.0
bed,21.0
bee,53.0
bet,79.0
consequences,36.0
parker,11.0
anyway,81.0
7x8,21.0
mohammed,155.0
accused,67.0
written,31.0
horrible,102.0
neither,22.0
precious,72.0
wapo,26.0
ty,27.0
netanyahu,11.0
context,28.0
reflection,18.0
homework,17.0
historia,10.0
racially,78.0
54aa2e849447,12.0
wilmore,20.0
inner,17.0
treatment,86.0
gifted,82.0
protest,17.0
upf,23.0
duquesne,103.0
nding,11.0
golds,13.0
tell,934.0
supporters,112.0
expose,22.0
rights,128.0
give,296.0
stupidity,86.0
luck,76.0
zenday,15.0
geekwire,35.0
ist,106.0
ish,11.0
loud,36.0
isd,131.0
hook,14.0
hood,11.0
strasbourg,95.0
matter,296.0
brilliance,20.0
unleashes,11.0
stop,789.0
picking,25.0
sunshine,18.0
near,26.0
ix,17.0
ik,14.0
im,303.0
il,20.0
ie,26.0
id,198.0
identify,30.0
facts,90.0
www,173.0
cair,73.0
burn,14.0
paid,25.0
forthcoming,19.0
salisbury,103.0
skin,341.0
olympic,483.0
era,20.0
transportation,22.0
bandwagon,90.0
exploitation,21.0
till,42.0
sunday,20.0
designed,26.0
guys,178.0
maybe,182.0
thorne,14.0
cute,84.0
texan,24.0
msnbc,29.0
texas,1427.0
killed,61.0
tuf2u,24.0
nudes,48.0
language,39.0
gotta,93.0
wiki,55.0
killing,29.0
trolling,49.0
richarddawkins,51.0
disappointment,18.0
custody,1151.0
according,21.0
middle,108.0
644624024455221248,19.0
cancer,17.0
gross,17.0
sudan,164.0
broken,41.0
helping,33.0
gerodr,16.0
suitcase,92.0
girlfriend,15.0
lifetime,35.0
field,19.0
obsessed,18.0
students,364.0
narrative,190.0
starting,28.0
represent,223.0
liar,28.0
anildash,15.0
imma,25.0
saudi,43.0
edu,21.0
lawyer,45.0
search,29.0
shondarhimes,59.0
ysfcg8,17.0
none,80.0
compare,11.0
blood,21.0
idea,98.0
insurance,72.0
vnguyl,30.0
audacity,11.0
bullies,190.0
bullied,112.0
wjla,14.0
commentary,25.0
ke,45.0
douglass,32.0
permission,13.0
individual,32.0
islamaphobic,11.0
islamaphobia,38.0
765240900318531584,25.0
create,647.0
creativity,87.0
newsone,44.0
understand,216.0
bill,238.0
tolerate,19.0
moment,123.0
excited,78.0
matters,109.0
per,21.0
doll,17.0
homemade,639.0
forward,89.0
dlfiso,14.0
perempuan,18.0
educators,13.0
backstory,47.0
intercept,26.0
mindset,17.0
ashamed,98.0
narratives,11.0
abcn,65.0
765276047826903040,11.0
programmes,23.0
disgusts,14.0
rep,36.0
electronics,81.0
rea,15.0
ref,29.0
red,45.0
embarrassed,15.0
absurd,18.0
timing,17.0
national,224.0
laugh,99.0
leaked,29.0
cjr,10.0
bullying,281.0
center,34.0
seats,15.0
works,56.0
est,30.0
esp,21.0
kisah,19.0
gratitude,14.0
panel,11.0
billions,16.0
bus,15.0
bud,12.0
minutes,47.0
tweet,392.0
pride,45.0
every,486.0
leaders,48.0
street,14.0
conduct,209.0
disney,11.0
hundreds,16.0
path,52.0
mm,38.0
mo,91.0
mi,16.0
mu,17.0
mt,73.0
mp,48.0
ms,130.0
mr,56.0
end,324.0
eng,15.0
hinsliff,48.0
reloj,134.0
fade,11.0
victory,13.0
biles,44.0
goo,418.0
gon,18.0
god,446.0
got,1352.0
gov,48.0
gop,37.0
1it6zsk,54.0
tool,17.0
serve,13.0
took,213.0
fashion,18.0
talking,155.0
geek,11.0
teachers,360.0
complex,23.0
several,28.0
yung,11.0
lxopez,11.0
humanity,95.0
apart,128.0
gift,52.0
ich,11.0
ice,20.0
427,11.0
suspensions,22.0
sept,15.0
head,745.0
medium,377.0
heat,13.0
hear,129.0
rid,23.0
sing,162.0
groups,31.0
dailym,13.0
dropped,16.0
speaks,142.0
irrational,18.0
83,11.0
worship,12.0
blocked,21.0
mohameds,266.0
teammates,42.0
millions,127.0
hug,38.0
hun,12.0
huh,31.0
buzzfeed,42.0
considered,25.0
crime,92.0
violated,63.0
fails,15.0
amed,27.0
color,375.0
robotics,87.0
poll,10.0
abdul,92.0
paying,13.0
except,41.0
virginia,13.0
boingboing,18.0
om,30.0
ok,211.0
oh,327.0
ow,586.0
op,24.0
y9g7,11.0
racism,1200.0
racist,1823.0
jus,15.0
politics,85.0
souls,11.0
program,20.0
vibes,26.0
1icrgj7,413.0
guns,55.0
embarrassing,18.0
speechless,13.0
bigger,82.0
teach,95.0
flip,65.0
11e5,13.0
11e6,79.0
outstanding,29.0
763770684845723648,15.0
lightbulb,13.0
succeed,21.0
nat,26.0
teespring,13.0
arrived,37.0
anybody,46.0
fucking,272.0
ordeal,20.0
768540189043986432,11.0
warning,11.0
nasa,220.0
765050239426240512,53.0
pushing,23.0
thenation,15.0
something,612.0
united,168.0
easily,15.0
courage,58.0
permanent,86.0
repping,15.0
rania,19.0
asshole,44.0
planning,14.0
democrats,10.0
filmed,16.0
brain,54.0
qa,14.0
qf,27.0
embarrassment,14.0
respect,529.0
member,39.0
beast,15.0
loser,20.0
loses,26.0
bitches,29.0
record,31.0
feral,28.0
four,23.0
commented,16.0
pembuat,20.0
bzfglv,22.0
types,15.0
easier,14.0
slate,66.0
foundation,54.0
silicon,109.0
1970s,12.0
crawl,14.0
showed,71.0
tree,18.0
project,173.0
doors,12.0
camp,38.0
came,124.0
participate,11.0
honda,28.0
pada,23.0
country,572.0
planned,19.0
privilege,60.0
worker,120.0
worked,97.0
reports,13.0
damages,53.0
innocent,147.0
daddy,16.0
soc,79.0
soo,31.0
son,244.0
sot,642.0
globalgrind,14.0
support,2051.0
devices,18.0
autode,16.0
models,15.0
sign,167.0
ithahmed,15.0
understanding,22.0
fake,174.0
angry,35.0
alex,11.0
pretend,51.0
awesome,722.0
allowed,45.0
stole,13.0
sr,17.0
sp,11.0
su,21.0
st,1021.0
sk,17.0
si,64.0
sh,71.0
sm,15.0
sl,22.0
sc,18.0
sa,29.0
se,51.0
flips,13.0
suspicion,16.0
open,87.0
wrath,43.0
madfal,53.0
fooled,35.0
argument,23.0
martyred,18.0
laws,12.0
nhuow,17.0
anyways,13.0
many,718.0
mani,139.0
caring,13.0
spotlight,20.0
ive,16.0
wingnut,24.0
around,303.0
memories,14.0
remaja,28.0
internship,15.0
het,10.0
hes,34.0
hey,559.0
heo,11.0
handsome,23.0
appalling,27.0
trending,295.0
mash,10.0
detention,15.0
discriminated,20.0
palin,422.0
musicians,13.0
8159256,15.0
petraeus,11.0
found,109.0
trendsmap,22.0
salute,49.0
misogyny,27.0
guess,186.0
guest,12.0
microsoft,285.0
banned,11.0
enemy,27.0
lewinsky,40.0
este,20.0
champion,709.0
representative,53.0
irvingblog,34.0
alert,17.0
handcuffing,11.0
4th,11.0
stunt,56.0
pst,26.0
shitty,29.0
suffering,11.0
continue,241.0
curious,78.0
clinton,41.0
1421778,20.0
ew,17.0
suit,20.0
us,3765.0
ur,482.0
um,42.0
un,112.0
twitition,29.0
istandw,13.0
holes,15.0
yemenpostnews,12.0
race,344.0
consistently,12.0
busy,35.0
belajar,18.0
francis,14.0
prompts,17.0
twitpic,11.0
move,144.0
2015,2968.0
2014,20.0
2016,535.0
2011,44.0
2013,20.0
2012,96.0
presidential,40.0
truth,266.0
evacuation,28.0
put,415.0
muhammad,41.0
prank,12.0
bother,25.0
defending,38.0
bring,355.0
principal,56.0
meant,32.0
means,71.0
katyperry,11.0
islamophobia,440.0
innovator,14.0
taunting,30.0
ends,20.0
invited,144.0
trumps,15.0
invites,75.0
huffpostpol,17.0
diff,10.0
blowing,42.0
contribute,12.0
irving,755.0
defend,74.0
controversial,19.0
deceptions,11.0
daughter,245.0
award,20.0
aware,19.0
theories,18.0
557,11.0
644672180454846464,11.0
interview,107.0
beach,16.0
finest,18.0
bombing,13.0
highlights,21.0
rocks,61.0
created,88.0
creates,143.0
seltzer,82.0
anatomy,57.0
missed,38.0
voting,14.0
personality,18.0
learned,43.0
wa,11.0
wo,18.0
wh,86.0
ww,14.0
ws,95.0
wp,160.0
easy,68.0
launches,35.0
air,52.0
launched,14.0
uplift,14.0
contact,13.0
photo,600.0
expelled,12.0
gregg,19.0
honored,42.0
old,1107.0
true,447.0
welcome,80.0
perceived,12.0
loves,208.0
appear,12.0
muslim,1933.0
suckers,20.0
amazingg,12.0
prove,53.0
cam,15.0
happen,107.0
rational,22.0
cari,14.0
card,19.0
care,148.0
message,67.0
checked,27.0
prick,11.0
price,124.0
forever,267.0
inventions,61.0
aaf8q,11.0
israeli,28.0
cbsnews,32.0
unapologetically,13.0
blame,64.0
jerks,46.0
legit,14.0
eid,17.0
tinyurl,105.0
followers,79.0
hackathon,50.0
3atop,15.0
rules,18.0
listening,19.0
viral,230.0
throw,30.0
src,46.0
sri,105.0
naysayers,23.0
arabs,20.0
inspire,130.0
push,31.0
value,12.0
factories,17.0
offended,13.0
history,216.0
arabic,33.0
help,378.0
ffs,20.0
held,61.0
yo,128.0
ye,13.0
yg,51.0
yr,154.0
stopped,31.0
ruthief,10.0
issue,133.0
reason,304.0
3286,13.0
3703542,13.0
officers,552.0
usual,14.0
perseverance,18.0
paranoia,73.0
hackers,84.0
alone,559.0
wasnt,37.0
citizen,18.0
look,697.0
644200972093399040,16.0
ready,51.0
bromo,82.0
themarysue,20.0
stem,72.0
step,66.0
shine,192.0
nonsense,39.0
lyfec,30.0
dwithahmed,16.0
644344847156027392,23.0
commercial,21.0
644,22.0
lochte,30.0
2bcshhr,11.0
win,213.0
wil,18.0
wit,112.0
started,124.0
wonderful,259.0
advocates,15.0
vilify,13.0
memes,17.0
completely,61.0
burkina,20.0
management,11.0
namanya,89.0
culture,175.0
buy,42.0
detector,331.0
based,60.0
yay,30.0
cowards,117.0
marienplatz,106.0
minorities,30.0
strange,15.0
nightly,18.0
fierce,63.0
well,594.0
sufi,15.0
1ypnvda,65.0
adversity,15.0
gonna,363.0
socialtimes,20.0
washington,31.0
stories,111.0
eric,11.0
simpson,31.0
whose,39.0
100,118.0
credit,35.0
criminals,35.0
adult,36.0
minority,53.0
president,361.0
mean,298.0
crucial,13.0
enjoy,91.0
wronged,14.0
924d,10.0
mind,180.0
mine,31.0
sounding,14.0
proving,18.0
ridiculous,141.0
explain,47.0
decided,28.0
02,29.0
00,24.0
01,23.0
06,65.0
07,34.0
04,59.0
05,68.0
09,1973.0
warrior,12.0
0e,11.0
initiative,11.0
san,150.0
ayah,11.0
ne6oyzystua,11.0
website,142.0
defeated,10.0
bella,61.0
sat,14.0
kit,32.0
kim,18.0
kid,1693.0
human,332.0
character,35.0
latest,132.0
wanting,20.0
unnecessary,21.0
disangka,17.0
knew,307.0
dangerandplay,42.0
potato,14.0
revoke,11.0
excellence,48.0
slow,11.0
patriots,13.0
dude,78.0
confused,34.0
mas,11.0
may,255.0
mad,165.0
mag,25.0
mao,16.0
man,684.0
tale,54.0
tall,77.0
talk,433.0
wishing,29.0
shake,93.0
rock,341.0
3rd,21.0
alexanderplatz,105.0
quran,12.0
demanding,13.0
org,614.0
thing,1731.0
think,1265.0
sounds,40.0
eyes,72.0
comedian,34.0
shop,10.0
shor,10.0
shot,49.0
elevate,81.0
corner,17.0
nearly,11.0
1ihq1n2,25.0
hypocrisy,21.0
speech,66.0
parody,43.0
money,74.0
facing,28.0
blessed,66.0
dreaming,18.0
deep,35.0
general,31.0
syrian,23.0
prise,15.0
alright,26.0
bible,16.0
eye,46.0
two,139.0
twt,10.0
fame,64.0
playing,46.0
already,156.0
24,75.0
25,114.0
27,17.0
20,284.0
21,116.0
22,100.0
23,136.0
28,42.0
29,31.0
noticing,22.0
complain,11.0
2v,13.0
2e,12.0
2h,18.0
print,14.0
brewery,103.0
iosapp,16.0
members,50.0
dont,282.0
done,515.0
para,46.0
park,44.0
part,195.0
livestream,17.0
majority,25.0
extremely,42.0
scholarship,120.0
ruin,33.0
unhappy,11.0
common,51.0
fans,221.0
geniuses,14.0
gay,47.0
gal,15.0
gak,11.0
gag,12.0
convo,12.0
purpose,35.0
harassed,63.0
lesson,71.0
power,181.0
train,22.0
account,81.0
alin,19.0
favorite,148.0
lame,11.0
willing,20.0
twice,92.0
math,12.0
philadelphia,121.0
harus,24.0
wilmot,28.0
normally,12.0
inspiring,245.0
relevant,29.0
improve,54.0
protect,83.0
bull,12.0
bulb,13.0
authority,13.0
although,15.0
gifts,65.0
actual,55.0
biggest,153.0
campus,19.0
46,11.0
limited,12.0
olympians,44.0
thehill,36.0
1ro1mvm,53.0
fabulous,52.0
represented,125.0
smile,276.0
relocate,25.0
ingenuity,23.0
london,69.0
p0z,11.0
aspire,18.0
onto,16.0
hearing,34.0
rant,17.0
9336,10.0
yang,137.0
saga,13.0
criticized,29.0
report,77.0
weak,33.0
wear,32.0
goddess,21.0
trust,34.0
leftist,28.0
trashes,33.0
teenager,593.0
proudly,32.0
plus,29.0
questionable,20.0
765416142840168448,12.0
1pnhsos,15.0
lly,11.0
focus,96.0
charge,19.0
237268,10.0
cool,303.0
tagar,22.0
kept,485.0
christchurch,125.0
iphone,12.0
kyleedwards,11.0
kyl,20.0
brand,19.0
name,428.0
childhood,13.0
cops,258.0
copy,15.0
schooled,12.0
ideas,17.0
defenseless,10.0
urge,12.0
esfsubrke7,23.0
reveal,11.0
4975,20.0
cbsloc,14.0
college,290.0
apologies,31.0
federal,17.0
adore,55.0
duty,12.0
por,64.0
pos,31.0
pop,73.0
64,51.0
65,12.0
poc,26.0
teammate,11.0
blessing,33.0
6v,24.0
careful,19.0
irrelevant,21.0
champions,30.0
cartoon,29.0
icymi,33.0
actress,26.0
rose,10.0
eorge,11.0
stand,1225.0
ladies,31.0
gare,86.0
gara,24.0
accounts,27.0
wonkette,107.0
ali,16.0
alt,27.0
hmmm,21.0
awful,94.0
tags,21.0
ckq0m3,14.0
minor,18.0
basically,20.0
goat,13.0
shade,15.0
essence,69.0
outraged,27.0
style,38.0
pray,38.0
expect,51.0
feed,40.0
feel,356.0
feet,12.0
sympathy,17.0
outrageous,13.0
suspicious,96.0
check,177.0
mbq4uhj3qj4,12.0
constitution,12.0
rts,16.0
jihadwatch,19.0
publicity,31.0
tgr,13.0
tg4,14.0
transferring,18.0
georgia,23.0
memulai,13.0
cheer,74.0
ifejohari,68.0
innovation,90.0
lose,49.0
wanna,93.0
asshats,12.0
patriot,22.0
homo,14.0
highlight,10.0
tribune,11.0
problems,65.0
hiyiqhptep,10.0
columnists,25.0
sis,66.0
sir,21.0
siu,12.0
sit,74.0
eepurl,28.0
invitations,17.0
88,47.0
89,11.0
82,14.0
80,28.0
81,16.0
86,23.0
87,16.0
84,50.0
85,45.0
supports,125.0
8a,30.0
2f,19.0
eshideler,20.0
faux,18.0
645248743768391680,50.0
alarmed,27.0
dld,16.0
wall,30.0
walk,56.0
thinkprogress,23.0
elhassan,37.0
fkn,13.0
gets,447.0
tumblr,74.0
universe,16.0
van,46.0
kidding,20.0
made,937.0
whether,39.0
yjqcm5gtaka,16.0
lord,11.0
tired,106.0
pulse,20.0
fingers,13.0
hero,389.0
reporter,12.0
swag,55.0
reported,26.0
1ucd0r1,23.0
holy,38.0
hole,23.0
hold,228.0
accomplishment,13.0
10153430231326130,16.0
hot,34.0
hop,13.0
beauty,146.0
headquarters,88.0
brockway,19.0
whiz,11.0
hillaryclinton,15.0
xid,11.0
bitter,17.0
nations,15.0
bush,11.0
release,71.0
result,25.0
wikipedia,58.0
wtf,89.0
wth,12.0
pity,11.0
asked,53.0
crying,35.0
irvine,12.0
cunt,11.0
surprised,64.0
played,45.0
player,28.0
things,1107.0
jkt,15.0
tune,19.0
east,43.0
39576,12.0
creative,69.0
sooo,39.0
soon,76.0
knowing,33.0
offer,49.0
talents,43.0
floor,15.0
ambitious,21.0
muslims,504.0
time,1055.0
along,56.0
amazing,2009.0
freaking,41.0
maintaining,472.0
ebonymag,16.0
appropriate,14.0
twirus,13.0
williams,12.0
custom,99.0
note,31.0
remarks,46.0
tears,62.0
going,575.0
screwed,11.0
jobs,61.0
aljazeera,36.0
almighty,13.0
bocah,33.0
hl4m4,70.0
grumpy,19.0
arrested,1546.0
scientific,16.0
ditangkap,20.0
complete,41.0
certain,21.0
walks,41.0
consider,43.0
existing,27.0
richard,158.0
dress,20.0
condemn,15.0
periscope,18.0
attitude,29.0
wat,16.0
really,820.0
defends,95.0
gaby,60.0
moroccan,14.0
currently,25.0
influential,33.0
pdf,16.0
devil,10.0
sweetheart,39.0
great,1076.0
handling,11.0
beautifully,44.0
surprises,12.0
garbage,24.0
berkarya,18.0
slander,13.0
tart,41.0
ago,104.0
age,709.0
carrying,17.0
continues,51.0
continued,29.0
indian,15.0
delivering,12.0
receive,18.0
opinion,138.0
emerson,83.0
produced,13.0
shut,131.0
embarrass,20.0
pigs,20.0
scare,36.0
misogynistic,14.0
device,1428.0
fiasco,19.0
btw,45.0
btn,21.0
f0ee53a0,12.0
terrorist,395.0
digging,10.0
terrorism,70.0
upon,31.0
idiot,118.0
paul,15.0
puts,22.0
rule,32.0
voted,15.0
compassion,28.0
tickets,12.0
told,85.0
kudos,40.0
itunes,13.0
scary,36.0
word,110.0
work,486.0
criticizing,53.0
india,27.0
woman,1017.0
br,19.0
order,25.0
office,41.0
shameful,48.0
jimbo,70.0
644152064688308224,11.0
bz,29.0
admits,97.0
comic,19.0
toronto,131.0
design,30.0
hacking,56.0
genuine,15.0
deeply,13.0
644499336781529088,10.0
pearson,17.0
steal,68.0
trendolizer,17.0
rocket,22.0
received,56.0
hounding,20.0
receives,99.0
ily,39.0
islamists,12.0
speak,168.0
mistake,53.0
independent,104.0
3223,11.0
looks,1702.0
fusion,36.0
rocked,12.0
cowardice,11.0
reality,44.0
terror,106.0
trouble,95.0
regret,11.0
htm,29.0
steamlabs,18.0
bawa,14.0
sacrifice,13.0
southern,15.0
typical,27.0
honest,35.0
jealousy,43.0
594070,24.0
dilabeli,74.0
notice,42.0
online,356.0
coolest,14.0
sudanese,120.0
etc,70.0
investigated,12.0
highly,12.0
early,32.0
business,66.0
area,19.0
assumed,12.0
aww,20.0
valid,14.0
building,625.0
horapunta,14.0
darkness,17.0
tries,18.0
committed,17.0
actually,216.0
miss,78.0
inventing,83.0
dinah,12.0
shawdeuce,27.0
lib,10.0
lil,80.0
lim,13.0
lit,14.0
useless,11.0
clear,61.0
clean,10.0
hypes,13.0
prague,148.0
sensitive,12.0
headed,10.0
box,125.0
determination,31.0
bonus,12.0
eating,15.0
stephaniemcnea,11.0
block,41.0
info,73.0
nah,24.0
nam,18.0
recordar,14.0
resign,45.0
youtube,1097.0
fresh,12.0
mosque,23.0
cell,16.0
20nk1ci,19.0
danger,27.0
singing,11.0
becomes,23.0
salah,11.0
mentioned,12.0
vauzwz,16.0
attending,12.0
final,56.0
exactly,131.0
able,82.0
medals,183.0
abuzz,29.0
awe,59.0
earned,33.0
employee,18.0
overall,12.0
statu,803.0
state,77.0
career,52.0
minds,61.0
treat,59.0
effect,15.0
discouraged,11.0
lauren,25.0
reasons,59.0
shes,53.0
proofs,33.0
duh,13.0
ps,15.0
144538,11.0
prohibited,15.0
schoolyard,28.0
usat,69.0
techvoice,109.0
hosting,15.0
cruel,83.0
pm,29.0
644640342185127936,26.0
using,317.0
594133,17.0
sweetest,16.0
even,813.0
ever,626.0
rld,13.0
campaign,1027.0
call,347.0
calm,13.0
laughs,11.0
curiosity,172.0
normanikordei,37.0
56134,32.0
hermosa,46.0
turning,30.0
starts,43.0
chest,11.0
650403128429387776,15.0
bay,56.0
bag,29.0
ban,12.0
unworthy,12.0
voxdotcom,18.0
olympics,407.0
harvard,25.0
obamas,21.0
three,92.0
644210841580015616,11.0
mohammad,23.0
balance,12.0
doha,17.0
claims,69.0
ifthis,11.0
unfair,27.0
candidate,34.0
performance,32.0
super,111.0
insult,15.0
sheeeesh,12.0
hard2guard,21.0
builds,99.0
staged,29.0
liputan6,12.0
suicide,20.0
mohame,12.0
dim,30.0
die,53.0
dia,31.0
diy,54.0
dis,12.0
wait,168.0
everybody,61.0
acceptable,23.0
malay,120.0
malah,13.0
soul,84.0
critics,100.0
thank,874.0
thang,12.0
mail,25.0
main,54.0
views,26.0
2r5pel26l,214.0
living,92.0
napolitano,12.0
lad,14.0
correct,29.0
law,91.0
voices,79.0
channel,12.0
track,26.0
surprising,45.0
keyboards,12.0
stupid,580.0
mark,100.0
mars,13.0
hatin,10.0
profiled,22.0
different,151.0
jews,11.0
critical,30.0
considering,16.0
despicable,36.0
violence,35.0
whites,14.0
765246568530255873,58.0
children,314.0
movement,101.0
investigating,28.0
1kks43a,21.0
response,679.0
tweeting,77.0
someone,462.0
mental,27.0
house,886.0
acting,26.0
erinruberry,18.0
treated,177.0
built,1757.0
joining,10.0
fine,48.0
find,187.0
target,76.0
vine,197.0
please,781.0
iron,13.0
powers,75.0
solid,16.0
aa,48.0
forced,29.0
andwithahmed,78.0
hours,43.0
newyorker,20.0
remembered,11.0
hopes,15.0
directed,23.0
p1ekgd,17.0
chicago,16.0
body,42.0
extreme,16.0
scandal,19.0
tearing,29.0
native,16.0
lines,11.0
chief,184.0
645056557500264448,11.0
mention,17.0
kindness,26.0
wfaa,51.0
barriers,21.0
south,20.0
flotus,15.0
unless,48.0
beat,48.0
bear,21.0
beam,19.0
shapiro,14.0
exists,26.0
progress,14.0
tyler,30.0
ill,41.0
linkedin,16.0
flava,14.0
islamaphobes,21.0
klou,24.0
journalism,14.0
alive,49.0
smid,12.0
glory,27.0
supreme,12.0
pin,22.0
pic,21791.0
pie,12.0
hating,159.0
bureaucrats,32.0
rise,122.0
kicked,15.0
pz824xg,25.0
garners,30.0
phony,14.0
phone,52.0
psyop,11.0
newshour,12.0
destroyed,11.0
ajc,16.0
aje,33.0
wanted,194.0
rac,14.0
ran,70.0
rap,11.0
metal,11.0
harmonizer,12.0
ock,14.0
idiotic,12.0
unicef,14.0
rawstory,77.0
spencer,12.0
cdh60,16.0
willful,29.0
donald,20.0
curre,14.0
efforts,16.0
presence,14.0
uncle,27.0
removed,12.0
tip,16.0
til,18.0
tim,15.0
longer,44.0
quick,54.0
4355541,13.0
stands,217.0
reply,35.0
water,13.0
765346599669293056,12.0
rootwoman123,11.0
drown,16.0
boards,15.0
sides,19.0
exclusive,28.0
dituduh,17.0
hysteria,23.0
hacker,14.0
hacked,62.0
george,136.0
season,14.0
koran,12.0
clowns,11.0
ways,54.0
review,13.0
ride,17.0
reminded,14.0
reminder,54.0
driven,11.0
gavin,19.0
kill,72.0
blog,262.0
losers,85.0
trash,50.0
applause,17.0
lack,39.0
lining,13.0
dance,24.0
song,60.0
far,180.0
fav,41.0
fat,23.0
fam,17.0
fab,14.0
pinterest,16.0
stick,38.0
12544,27.0
brown,189.0
12540,18.0
scientist,53.0
hahmed,33.0
ham71,17.0
stereotyping,29.0
forgive,19.0
hte,12.0
brave,66.0
passed,11.0
double,45.0
dangerguerrero,16.0
dapat,11.0
buff,200.0
reach,49.0
react,21.0
achievement,18.0
stfu,43.0
hit,57.0
1qxbwlj,12.0
bars,24.0
baru,10.0
intelligence,47.0
became,77.0
whoa,23.0
bopandtigerbeat,38.0
hatred,135.0
social,1712.0
cartwheel,16.0
malicious,14.0
karma,37.0
engineered,17.0
gitmo,35.0
1gfnwrh,11.0
ticking,37.0
bit71,37.0
women,535.0
column,23.0
gabby,4132.0
laurenjauregui,16.0
rape,14.0
guru,16.0
gurl,13.0
ethnic,10.0
interrupted,18.0
owe,44.0
choose,25.0
covered,17.0
fastsocialfollower,57.0
york,41.0
conversation,35.0
768594987248259072,33.0
mistook,12.0
debate,38.0
unfairly,19.0
dimmed,11.0
english,48.0
happiness,49.0
lead,35.0
murdered,17.0
surge,16.0
brush,28.0
goodness,20.0
book,63.0
boom,30.0
accomplish,31.0
shero,27.0
istandwithahmeds,19.0
49,15.0
bbcworld,24.0
golden,36.0
refuse,28.0
music,53.0
circumstances,35.0
unjust,11.0
absolute,38.0
1bdds,10.0
sickening,59.0
rewarded,26.0
saddened,14.0
telescope,19.0
allah,167.0
encourage,59.0
service,41.0
fox5atlanta,30.0
handcuffs,66.0
mouth,39.0
singer,44.0
scream,12.0
tehran,104.0
rich,17.0
rica,21.0
theblaze,81.0
0cc47a0d1605,12.0
avaatz,70.0
zytglogge,121.0
beloved,10.0
istan,15.0
oneness,20.0
650326647695015936,11.0
rp77dumcr,34.0
beings,17.0
valleys,22.0
makezine,40.0
wordpress,98.0
greatness,82.0
role,382.0
roll,34.0
choice,55.0
ghostbusters,59.0
shirts,23.0
clockboy,11.0
accomplished,228.0
tlxtijv,15.0
working,85.0
shaunking,52.0
admired,32.0
pulled,19.0
douglas,1776.0
years,278.0
suspension,182.0
troll,54.0
internet,442.0
brasil,139.0
gordon,11.0
7367,21.0
one,1784.0
shawn,11.0
projects,30.0
printer,29.0
buffer,12.0
aliyatlecky,35.0
constant,22.0
wants,231.0
former,49.0
situation,223.0
edges,31.0
wired,53.0
nothin,30.0
schools,234.0
sportsmanship,13.0
world,1263.0
911,21.0
leadership,16.0
gillettevenus,17.0
yhoo,22.0
pull,37.0
rush,83.0
minstrm,28.0
small,112.0
past,61.0
pass,35.0
clock,8369.0
full,195.0
experience,60.0
followed,35.0
follower,13.0
door,18.0
negativity,81.0
nameiscayden,41.0
intended,594.0
lanka,105.0
thought,1318.0
horloge,23.0
smiling,94.0
mistreated,12.0
dailykos,129.0
reactions,17.0
operation,32.0
definition,34.0
dfw,14.0
sell,12.0
self,114.0
also,397.0
jostle,13.0
sometimes,104.0
ugh,29.0
patheos,12.0
suitcaseclock,12.0
shower,10.0
last,193.0
acted,17.0
talent,351.0
admire,80.0
vox,162.0
twitchy,23.0
ugliness,25.0
honor,78.0
cuffs,16.0
abound,13.0
individuals,18.0
deserved,101.0
melbourne,104.0
deserves,634.0
maturity,12.0
chat,19.0
land,22.0
broader,474.0
1lmrybo,27.0
headline,15.0
thats,87.0
next,273.0
pencil,87.0
babe,26.0
baby,250.0
educational,17.0
realized,20.0
robot,30.0
holds,11.0
mute,14.0
perfect,135.0
realize,74.0
burke,16.0
hashtags,119.0
uncalled,14.0
banksyofficiai,11.0
worldwide,26.0
jam,227.0
lawsuit,98.0
bristol,200.0
blatant,22.0
youngcons,28.0
identity,20.0
indonesia,58.0
clocks,430.0
web,51.0
choosing,11.0
kiddo,14.0
pressure,47.0
lifestyle,32.0
popehat,14.0
yrs,41.0
places,26.0
placed,16.0
sexual,14.0
lately,26.0
repeat,22.0
personified,13.0
644646051031355392,20.0
sarah,223.0
plot,32.0
ploy,21.0
blocking,44.0
moron,34.0
appreciate,84.0
safe,79.0
electronic,24.0
john,87.0
nobody,172.0
h4qeo,24.0
chirpstory,11.0
emotions,12.0
edited,11.0
away,226.0
climate,17.0
attacked,87.0
gracious,40.0
cont,22.0
amount,41.0
hang,84.0
hand,220.0
shout,57.0
righteous,11.0
cooler,27.0
youthtoday,28.0
born,31.0
asking,68.0
adorable,91.0
huffingtonpost,489.0
prayer,25.0
update,32.0
20150916,12.0
soooo,23.0
cost,18.0
wonderfully,33.0
product,13.0
disgusted,76.0
raised,36.0
non,74.0
thankful,21.0
wrap,28.0
replay,18.0
tried,703.0
234688,15.0
invitation,67.0
blind,28.0
appreciated,42.0
768595379638067200,23.0
bashing,29.0
clockmaker,112.0
america,790.0
discovered,12.0
inside,136.0
empathy,31.0
suspected,22.0
scum,20.0
amo,48.0
ame,45.0
amp,41.0
ams,22.0
innocence,21.0
s31fhobdrb,12.0
mengenal,17.0
start,146.0
stars,66.0
podcast,32.0
fraud,228.0
jeremylintel,27.0
beyond,110.0
month,43.0
anak,48.0
instagram,674.0
ails,25.0
znl6asy,13.0
theverge,25.0
terrible,75.0
punked,12.0
cutie,19.0
ceo,57.0
wedlock,11.0
safety,1075.0
usatoday,62.0
station,20.0
hires,11.0
fbid,30.0
chloeangyal,13.0
justice,102.0
feels,55.0
pretending,11.0
patriotism,51.0
close,52.0
pictures,47.0
missing,27.0
forgotten,16.0
4cey9,11.0
wozniak,30.0
lived,71.0
lives,117.0
liver,114.0
smart,298.0
lie,55.0
000,55.0
chris,25.0
51hzdd,24.0
nikki,20.0
een,25.0
popular,48.0
blow,94.0
ignorant,224.0
celebrities,54.0
wave,30.0
michael,29.0
ryan,38.0
gene,10.0
76255674,38.0
costume,17.0
lesliex123,23.0
entertainment,20.0
cause,318.0
experiment,21.0
powerful,99.0
revealed,11.0
tinkering,111.0
washingtonpost,94.0
startupitalia,15.0
gallery,27.0
achieve,36.0
officials,75.0
hits,11.0
shoulders,15.0
simone,41.0
hearted,17.0
thebea,41.0
parts,54.0
party,83.0
necessary,27.0
lost,84.0
library,12.0
home,186.0
reaching,23.0
previously,14.0
north,13.0
blaming,25.0
display,33.0
stat,594.0
star,223.0
stay,599.0
stan,63.0
atheist,46.0
atheism,12.0
buddy,28.0
investigation,110.0
likely,42.0
fantastic,81.0
survive,12.0
athletes,134.0
pius,11.0
discipline,18.0
lawyers,18.0
aliarsalem,52.0
wingnuts,24.0
edsurge,17.0
ibtimes,11.0
achieved,39.0
palace,168.0
tells,78.0
hide,50.0
appalled,17.0
theroot,277.0
cousin,11.0
basis,17.0
tiny,17.0
trigger,18.0
interest,25.0
basic,17.0
leaves,23.0
seven,20.0
ridicule,18.0
33,88.0
yea,19.0
yep,33.0
yes,394.0
yet,243.0
hisnameis,29.0
royal,200.0
save,30.0
30,62.0
somehow,17.0
emmaladyrose,18.0
1vnnmbu,66.0
magazine,56.0
slurs,37.0
flying,47.0
20zzyf,14.0
journey,22.0
weekend,27.0
round,23.0
dealing,15.0
international,30.0
filled,36.0
sake,29.0
visit,153.0
gadgets,36.0
making,682.0
x3abz9l,11.0
idk,24.0
shoes,29.0
group,130.0
interesting,108.0
conoce,11.0
maher,234.0
ahmad,92.0
insecure,27.0
meme,34.0
memo,10.0
funniest,22.0
assault,15.0
beth,16.0
queens,12.0
awareness,12.0
orang,28.0
progresstexas,103.0
morning,160.0
enough,286.0
among,26.0
judging,11.0
disappointed,32.0
sound,24.0
ekaes,22.0
truther,21.0
rilis,48.0
images,23.0
drag,15.0
smells,13.0
imagination,11.0
colleges,12.0
founder,30.0
sitting,45.0
perspective,55.0
dailycaller,12.0
alternatives,32.0
policies,49.0
misery,14.0
numbers,14.0
questioning,12.0
coming,184.0
messed,39.0
768910514688815105,14.0
prejudices,11.0
gender,21.0
beginning,105.0
tahu,11.0
644283274592849920,11.0
trolls,411.0
bad,285.0
couch,49.0
suck,57.0
idiots,167.0
express,37.0
expert,19.0
pissed,37.0
geris,71.0
dark,37.0
shape,23.0
cut,30.0
cuz,96.0
source,402.0
absolutely,182.0
dawes,22.0
decision,30.0
epic,24.0
slams,89.0
invite,162.0
murica,11.0
planet,43.0
1nv9o,21.0
access,11.0
evacuate,113.0
che,16.0
galaxy,19.0
tsa,15.0
apologize,287.0
que,120.0
backwards,12.0
explanation,505.0
sparks,34.0
criminalizing,13.0
0cc47a0d15fd,11.0
sisters,31.0
gma,17.0
happens,93.0
tomy,40.0
female,53.0
corporation,11.0
mass,30.0
school,3032.0
badass,37.0
blue,28.0
tx,158.0
tw,150.0
would,1543.0
tl,20.0
tf,26.0
toxic,34.0
ima,11.0
evans,11.0
imo,14.0
iowa,126.0
pbs,26.0
genocidal,15.0
af8e,12.0
filter,11.0
corpus,107.0
immigrants,11.0
colors,13.0
despite,45.0
motherboard,40.0
disturbing,44.0
grandmother,35.0
however,30.0
news,1332.0
conference,17.0
screw,64.0
possesses,18.0
deleted,10.0
talkingpointsmemo,15.0
election,11.0
setting,13.0
others,262.0
3333,21.0
impressive,14.0
level,61.0
posts,243.0
standards,28.0
56239e6ae4b0bce34701009e,29.0
amell,19.0
winner,63.0
abbas,29.0
critic,11.0
bigot,57.0
insecurities,12.0
islamic,67.0
xxxx,11.0
representation,21.0
ppl,349.0
yup,633.0
turn,89.0
hurtful,69.0
1st,90.0
sure,260.0
later,32.0
andrew,20.0
spirit,113.0
libertynews,19.0
week,257.0
without,201.0
lets,84.0
love4gabbyusa,117.0
competition,19.0
stereotypes,38.0
alleged,37.0
oth,16.0
minneapolis,104.0
wife,22.0
list,60.0
harder,12.0
invention,183.0
version,17.0
christian,54.0
459601860888737,30.0
flat,11.0
flag,62.0
ense,12.0
ahmeds,168.0
ahmedi,13.0
rather,36.0
okay,111.0
short,76.0
balloon,27.0
bout,28.0
friday,46.0
beginging,22.0
electric,11.0
ewinsky,56.0
defense,41.0
threats,62.0
slaying,21.0
commentisfree,49.0
sweet,121.0
sharebuttons,43.0
demand,27.0
cautious,14.0
question,88.0
pres,20.0
peace,202.0
users,50.0
mainstream,17.0
makers,75.0
folk,24.0
leaving,32.0
app,31.0
apa,17.0
clever,14.0
toddler,14.0
wrist,17.0
banyak,13.0
republican,14.0
articles,276.0
progressive,12.0
oup,11.0
diminish,10.0
agreed,21.0
local,82.0
150016610,17.0
istandwit,33.0
humiliation,34.0
favor,24.0
bought,50.0
ability,21.0
730,13.0
perhaps,30.0
misogynist,11.0
slave,43.0
musulman,11.0
arresting,53.0
press,73.0
showing,131.0
abstinence,14.0
moh,24.0
n2055545,14.0
promise,16.0
incredible,202.0
incredibly,54.0
races,10.0
prize,26.0
ajenglish,14.0
theinscribermag,23.0
military,33.0
presents,15.0
xltub4,11.0
courageous,35.0
skills,44.0
chose,19.0
smv,46.0
smh,134.0
listen,254.0
person,503.0
doin,27.0
victoria,76.0
letter,96.0
episode,75.0
respond,39.0
blew,16.0
fair,131.0
fail,42.0
australia,14.0
opinions,47.0
possible,47.0
possibly,26.0
unique,18.0
steps,11.0
aarau,111.0
fox,47.0
dollars,17.0
citizens,14.0
proud,2284.0
proved,19.0
proven,25.0
proves,59.0
cheap,11.0
1km7atn,78.0
tear,72.0
team,300.0
educate,21.0
posteverything,13.0
love,5180.0
bloody,17.0
positive,151.0
cherished,10.0
wondering,32.0
introducing,16.0
values,18.0
spot,34.0
petition,36.0
8y0wlm78u,17.0
representing,324.0
thr,26.0
bombs,173.0
teens,103.0
uh,28.0
uk,288.0
lesdoggg,267.0
thousand,14.0
rooting,21.0
wpo,33.0
weekly,16.0
townhall,26.0
racial,214.0
thinks,105.0
poise,59.0
1442561665,12.0
industry,22.0
image,50.0
congress,37.0
ca1e4b0baa355ad1e08,32.0
original,33.0
section,21.0
christophe,86.0
ignore,394.0
pics,40.0
pick,59.0
action,105.0
young,1080.0
archives,17.0
keeping,81.0
science,632.0
sense,104.0
information,724.0
trk,34.0
always,1202.0
number,49.0
heads,33.0
threatening,25.0
appreciation,17.0
grace,237.0
determined,17.0
marriage,28.0
play,88.0
plan,40.0
justify,21.0
attacking,83.0
impact,27.0
failed,36.0
libtards,11.0
nope,24.0
whole,571.0
firm,14.0
fire,89.0
pakistan,40.0
4cg3n,217.0
funny,310.0
recent,23.0
telegram,12.0
homeland,41.0
demands,53.0
644261776146632704,11.0
b4,31.0
b5,12.0
b3,17.0
b9,14.0
ba,20.0
bc,204.0
bo,19.0
bi,36.0
bs,75.0
tidak,16.0
594120,26.0
link,36.0
line,50.0
wrongly,17.0
robots,18.0
hello,39.0
code,216.0
moon,15.0
cody,30.0
dislike,662.0
3afixed,17.0
costruire,13.0
led,54.0
les,49.0
let,1680.0
333,14.0
doubt,66.0
npr,14.0
allow,56.0
bar,20.0
shallow,11.0
surely,16.0
david,20.0
davis,11.0
blown,17.0
blows,59.0
fuckers,17.0
solidarity,85.0
rockwell,84.0
counter,107.0
sweetie,18.0
ignorance,171.0
figured,10.0
figures,10.0
pho,11.0
dust,16.0
php,90.0
sickened,13.0
hardworking,44.0
avoid,22.0
stage,24.0
sister,201.0
commitment,23.0
count,38.0
30427294,30.0
recognize,21.0
zheng,12.0
hilarious,126.0
relentlessly,12.0
1kshw5f,15.0
study,49.0
aku,14.0
aka,32.0
green,22.0
consent,15.0
somewhere,52.0
crimes,17.0
islamhouse,57.0
fandom,22.0
strength,151.0
sue,50.0
d8,245.0
d9,217.0
dm,11.0
di,169.0
dg,11.0
de,446.0
dc,19.0
da,107.0
du,29.0
dr,47.0
teaching,31.0
sickens,12.0
cop,26.0
cos,22.0
coz,12.0
con,41.0
victimhood,13.0
petty,55.0
voice,57.0
td4gff,42.0
evil,76.0
thx,59.0
tht,20.0
tho,50.0
thi,15.0
mocked,20.0
mille,12.0
security,81.0
pays,24.0
policymicfb,12.0
fight,101.0
evidence,592.0
flav,23.0
interested,36.0
blast,15.0
revolution,11.0
hell,184.0
rarely,14.0
douche,11.0
labeled,13.0
indeed,35.0
acknowledge,17.0
wont,35.0
fired,720.0
receiving,47.0
defenses,13.0
amazingly,32.0
size,12.0
friend,102.0
mostly,23.0
islamophobic,63.0
angel,78.0
anger,12.0
ground,21.0
husband,13.0
concern,1123.0
justified,18.0
article,412.0
talented,655.0
comes,111.0
punished,128.0
editorial,23.0
media,1383.0
coworkers,25.0
mentally,20.0
struck,15.0
lady,293.0
central,117.0
protests,14.0
trying,193.0
hire,27.0
apology,130.0
describe,13.0
moved,26.0
moves,46.0
nerd,80.0
coverage,40.0
sosok,15.0
mill,119.0
strong,880.0
samad,92.0
heartbroken,12.0
finally,67.0
praised,40.0
vs,96.0
nine,11.0
fr,32.0
ft,18.0
fw,17.0
fb,1606.0
fm,19.0
adweek,17.0
fully,19.0
robert,15.0
timeline,22.0
base,16.0
bash,26.0
jordan,17.0
towards,86.0
quote,21.0
shoutout,29.0
meanwhile,24.0
famous,84.0
clue,18.0
woc,22.0
victimized,23.0
muhammadlila,11.0
adores,13.0
buzz,16.0
jpg,23.0
anymore,53.0
belong,16.0
strife,22.0
trendi,48.0
creation,13.0
trends,149.0
qatar,340.0
exec,15.0
civilization,10.0
hypocritical,13.0
faith,76.0
seeing,134.0
firstdogonmoon,24.0
gabrielledoug,102.0
circuits,14.0
adults,75.0
fly,58.0
9th,57.0
focused,26.0
nyc,29.0
activism,31.0
activist,119.0
achievements,45.0
reacts,12.0
keep,1908.0
possessing,67.0
locaux,17.0
envy,17.0
preach,13.0
prayers,27.0
legacy,13.0
luv,92.0
discrimination,115.0
tweets,203.0
inc,17.0
accurate,11.0
natl,19.0
micronta,20.0
h8,16.0
noticed,18.0
hs,134.0
hv,13.0
ht,35.0
samwhiteout,11.0
ho,13.0
ha,91.0
twist,12.0
girl,940.0
blogs,347.0
affect,13.0
solution,86.0
3772,57.0
new,653.0
net,150.0
nes,14.0
masha,10.0
omar,25.0
county,24.0
counts,18.0
recommend,216.0
type,83.0
keyboard,34.0
rhetoric,26.0
surprise,26.0
revenge,21.0
fuckin,14.0
speck,18.0
girls,437.0
hillary,39.0
points,35.0
judged,61.0
fields,14.0
rockstar,22.0
sebagai,38.0
protected,14.0
teaparty,26.0
shame,341.0
govt,12.0
depicts,12.0
normal,28.0
nerve,11.0
negative,99.0
bernama,20.0
form,25.0
fort,20.0
delete,15.0
shit,390.0
felt,48.0
fell,49.0
authorities,41.0
billion,16.0
invent,137.0
targeted,90.0
jezebel,28.0
heres,48.0
priceless,12.0
genuinely,12.0
effort,25.0
growing,63.0
crazy,118.0
pure,70.0
grow,97.0
jail,69.0
pointed,10.0
bullshit,139.0
agit,19.0
nuff,18.0
carry,47.0
conspiracy,61.0
pain,31.0
cuban,22.0
salon,64.0
black,1335.0
democracyforamerica,38.0
behind,522.0
reading,80.0
tus,723.0
jp,19.0
jo,14.0
je,32.0
peoples,12.0
offered,40.0
totally,83.0
amazed,28.0
bank,14.0
nice,192.0
seconds,52.0
handcuffed,658.0
videos,102.0
cyberbullying,22.0
13,57.0
talks,207.0
fall,52.0
foxnews,18.0
stood,57.0
christi,107.0
airport,35.0
armed,11.0
town,142.0
des,44.0
det,16.0
dem,14.0
movements,19.0
harsh,57.0
pleasure,20.0
trib,84.0
marmel,14.0
late,111.0
reuters,17.0
seeking,56.0
everyone,452.0
pathetic,110.0
mama,36.0
spirited,16.0
significant,11.0
thomas,28.0
feared,13.0
positivity,49.0
alot,16.0
secret,31.0
cruelty,23.0
fun,128.0
larger,11.0
spent,13.0
spend,21.0
hated,34.0
hates,20.0
hater,35.0
back,898.0
bogus,11.0
nckrll,30.0
bored,13.0
engineering,205.0
euihvppmwgi,12.0
kordei,51.0
6vh4qeo,57.0
putting,74.0
respectful,11.0
giving,80.0
worshipping,23.0
named,74.0
private,33.0
names,38.0
unreal,14.0
praise,48.0
winners,19.0
bothered,13.0
bunch,65.0
le,65.0
lc,11.0
la,205.0
ln,234.0
lo,40.0
li,94.0
criminal,70.0
ly,3254.0
strive,12.0
4cgvk,17.0
gravity,14.0
atus,696.0
supported,38.0
supporter,21.0
latimes,26.0
frankfort,130.0
busted,17.0
comment,113.0
ysf,14.0
respected,32.0
arabia,28.0
weapon,21.0
protecting,91.0
supportive,11.0
worthy,29.0
doesnt,77.0
thecut,10.0
wise,22.0
wish,228.0
detractors,13.0
hate,1572.0
10506223,46.0
trolled,10.0
shining,161.0
studio,59.0
feelings,44.0
shoot,21.0
join,134.0
mess,44.0
twat,10.0
western,18.0
socia,16.0
random,12.0
gods,12.0
abt,79.0
interrogated,28.0
countries,11.0
shots,10.0
swept,12.0
boss,30.0
board,58.0
inventors,30.0
greatest,57.0
595103,25.0
tour,24.0
whi,11.0
genocide,10.0
gawker,28.0
ideos,32.0
humiliate,48.0
ni,17.0
nl,13.0
na,50.0
nd,21.0
ne,58.0
ng,81.0
nt,20.0
nu,16.0
fear,199.0
weird,36.0
shark,66.0
braverythorne,12.0
msn,37.0
msm,17.0
laughter,29.0
months,19.0
unbelievable,41.0
macarthur,172.0
equality,19.0
theory,24.0
innovators,13.0
lmao,37.0
pre,20.0
ana,46.0
pro,49.0
mates,23.0
ans,11.0
falls,18.0
regarding,20.0
reveals,21.0
detect,29.0
weapons,13.0
schoolboy,19.0
mocking,31.0
events,39.0
moronic,12.0
644310618175049728,11.0
applaud,11.0
changing,46.0
purposeful,13.0
model,380.0
cloc,18.0
poised,22.0
legal,33.0
cbc,14.0
taylor,14.0
cbs,11.0
included,12.0
follow,655.0
subjected,22.0
worse,38.0
worst,139.0
tea,38.0
ted,114.0
tee,18.0
epitome,33.0
1v7t3ql,13.0
breaking,80.0
september,42.0
islam,191.0
difficult,13.0
health,10.0
thrown,27.0
circuit,31.0
evine,128.0
762081166421700609,28.0
eff,12.0
added,27.0
bff,10.0
youth,59.0
recently,24.0
breakin,26.0
pr,73.0
pt,16.0
due,71.0
pc,35.0
pa,16.0
pd,65.0
pk,18.0
pi,12.0
pn,21.0
po,56.0
woke,25.0
theres,14.0
knack,14.0
build,377.0
tinker,17.0
sad,411.0
xoxo,58.0
fast,26.0
faso,21.0
benshapiro,10.0
androidapp,17.0
gr8,20.0
steve,55.0
issues,49.0
car,645.0
dikira,18.0
sexy,11.0
use,170.0
usa,743.0
sort,25.0
impress,62.0
topic,40.0
mediacontentstory,19.0
performs,12.0
combat,22.0
looked,132.0
donate,14.0
responses,15.0
ncpcf,22.0
nightlyshow,12.0
hmm,32.0
fighting,81.0
cried,46.0
cries,27.0
kinds,17.0
raise,29.0
10153709281933281,16.0
makershed,17.0
champ,86.0
album,23.0
increase,73.0
gabrielle,66.0
criticism,199.0
cpk3w,16.0
hamas,11.0
1kxqqya,19.0
example,191.0
caution,15.0
feature,61.0
xi,13.0
menggemparkan,11.0
rs,18.0
rd,35.0
ra,14.0
rn,14.0
threatened,33.0
thrilled,15.0
entry,383.0
raisman,15.0
2r5pel,23.0
lessons,38.0
logic,48.0
haters,1675.0
capitol,128.0
bit,2398.0
harassment,91.0
losing,26.0
google,218.0
mclellan,24.0
magnificent,16.0
jenkins,16.0
15m,47.0
flavorflav,12.0
leave,630.0
644709136433872897,10.0
brilliant,186.0
everywhere,135.0
cergy,86.0
edinburgh,111.0
natural,17.0
cannot,97.0
celebrate,65.0
nation,125.0
765213892280811520,18.0
umrah,14.0
sings,11.0
disrespect,25.0
city,552.0
heck,22.0
colgate,127.0
drive,20.0
bright,150.0
1ykreq4,16.0
outrage,79.0
worried,27.0
screen,30.0
awesomeness,14.0
rest,106.0
dari,36.0
dare,44.0
biases,21.0
package,22.0
october,16.0
tv,167.0
tt,367.0
tu,14.0
ts,37.0
tn,11.0
th,24.0
ti,20.0
te,68.0
joined,13.0
large,12.0
scientists,57.0
legend,49.0
ein,15.0
gorgeous,91.0
scam,55.0
6bvzte,32.0
blacks,17.0
celeb,18.0
gold,568.0
frontburner,12.0
reporters,12.0
cry,61.0
dueydialer,16.0
jadi,28.0
narslsslst,24.0
monsters,11.0
available,18.0
incident,102.0
allegiance,23.0
church,11.0
squirrel,20.0
straight,43.0
forrest,20.0
sydney,49.0
hisnameiscayde,14.0
naledi,14.0
nobel,14.0
poster,12.0
posted,106.0
cid,13.0
graceful,31.0
scratch,57.0
magic,84.0
tre,12.0
try,217.0
pledge,46.0
invented,107.0
sgt,38.0
challenge,32.0
pawn,15.0
srs,18.0
classy,51.0
lful,13.0
nypost,21.0
system,56.0
evacuated,76.0
accusing,11.0
765200120329728000,27.0
segment,12.0
face,224.0
fact,158.0
sista,20.0
handle,41.0
17303885,13.0
va,39.0
vb,14.0
site,29.0
v2,13.0
government,365.0
karime,57.0
sciencefriday,26.0
constantly,25.0
ini,75.0
ind,25.0
ing,31.0
sharia,27.0
child,744.0
spew,15.0
special,77.0
officially,19.0
items,26.0
total,56.0
20zzyf67e7q,29.0
pizza,25.0
earlier,45.0
57b5e76de4b034dc73262f93,11.0
band,40.0
slavery,14.0
hooked,15.0
standard,38.0
wbur,15.0
judgmental,11.0
enjoyed,29.0
joyannreid,34.0
nasty,41.0
buat,32.0
miserable,31.0
standwithahmed,193.0
publicly,35.0
perform,37.0
dallas,77.0
athletic,12.0
belongs,19.0
bastards,28.0
aimed,19.0
denies,31.0
khan,23.0
post,538.0
rallying,19.0
accepts,41.0
cbslocal,14.0
way,756.0
war,107.0
becoming,25.0
taken,177.0
moore,14.0
brothers,14.0
grateful,31.0
certainly,28.0
usually,19.0
shaming,40.0
disgust,12.0
heart,461.0
heard,111.0
looking,201.0
xo,23.0
xd,20.0
xx,23.0
carson,29.0
slay,77.0
slap,11.0
michelle,13.0
3493,11.0
mashable,45.0
fifth,58.0
truly,229.0
sport,75.0
eastgate,100.0
trick,17.0
ift,333.0
spectacular,12.0
popularmechanics,23.0
artic,12.0
loc,16.0
log,24.0
lol,313.0
los,25.0
lov,13.0
lot,263.0
abcnews,16.0
beliefs,14.0
podium,14.0
publish,14.0
appearance,20.0
iran,13.0
labs,37.0
family,1175.0
suspending,38.0
takes,101.0
takei,26.0
excuse,60.0
upworthy,66.0
765227069034885121,30.0
banks,61.0
dream,214.0
768642399140589568,22.0
fucked,64.0
selling,16.0
netizen,16.0
ncy,14.0
membuat,20.0
policing,20.0
damn,198.0
dame,96.0
older,26.0
fno58,38.0
game,116.0
bukan,14.0
764472595592904704,12.0
within,36.0
larry,50.0
dull,23.0
mediaite,28.0
noise,29.0
picked,15.0
decency,13.0
believed,17.0
paranoid,29.0
terrorizing,23.0
crap,98.0
potus,165.0
xenophobic,16.0
hands,97.0
perfectly,38.0
rss,26.0
violation,15.0
tbh,12.0
endless,11.0
grap,128.0
humans,53.0
snpy,13.0
admit,46.0
quit,22.0
drone,48.0
claiming,12.0
mistaken,680.0
mistakes,16.0
immediately,26.0
page,64.0
peter,117.0
competitor,26.0
camila,27.0
freedom,58.0
equally,16.0
goals,12.0
ear,12.0
eat,25.0
friends,194.0
asian,52.0
smack,12.0
dry,21.0
ignoring,19.0
3dprint,11.0
wars,27.0
warn,11.0
warm,18.0
hoax,674.0
setup,39.0
withahmed,48.0
150917181620162,22.0
attempt,23.0
weeks,15.0
side,109.0
stealing,18.0
reader,35.0
fave,14.0
struggle,13.0
eventbrite,11.0
hollywood,25.0
gym,20.0
louder,25.0
sees,35.0
seen,155.0
seem,43.0
seek,15.0
sendiri,17.0
alarm,697.0
dog,18.0
filtro,11.0
folks,148.0
monica,99.0
lazy,17.0
una,28.0
und,11.0
une,40.0
personally,27.0
make,1751.0
unfortunate,22.0
opportunity,243.0
changes,16.0
uglas,10.0
protocol,21.0
dreams,100.0
dignity,62.0
whats,34.0
failure,13.0
propaganda,23.0
discriminate,15.0
walking,31.0
must,301.0
swagger,15.0
neck,18.0
765214851950084096,11.0
765052419709476865,178.0
bomba,17.0
suspended,187.0
anyone,598.0
1n,14.0
moscow,100.0
butt,22.0
11,276.0
10,576.0
12,136.0
15,354.0
14,573.0
17,449.0
16,300.0
18,696.0
potential,34.0
insanity,71.0
dick,32.0
chelseaclinton,25.0
reportsafrique,16.0
workshop,12.0
educated,50.0
solve,17.0
either,79.0
served,19.0
smear,51.0
6eszvgbz0,12.0
5cba,12.0
important,275.0
vile,43.0
katy,12.0
returning,25.0
difference,74.0
perception,567.0
public,192.0
ricas,13.0
cowardly,18.0
shack,42.0
texting,39.0
aldosari,12.0
advice,45.0
responsibility,12.0
disrespectful,30.0
harm,14.0
energy,40.0
hard,385.0
putih,15.0
lawrence,14.0
nbcnews,64.0
least,88.0
akan,54.0
believe,346.0
supposed,34.0
honors,20.0
karena,17.0
huff,86.0
remove,19.0
retweet,128.0
57b1c61de4b069e7e505cc4c,132.0
simple,51.0
audios,20.0
simply,660.0
jessop,117.0
letting,27.0
judgement,15.0
bisa,16.0
explosives,25.0
boyd,39.0
boys,79.0
p6mfuc,12.0
excuses,20.0
14yo,12.0
14yr,17.0
rallied,73.0
rallies,26.0
rants,15.0
helps,17.0
imgur,33.0
3x,12.0
dengan,22.0
3a,16.0
3d,39.0
32,12.0
31,13.0
35,19.0
thefederalist,20.0
duped,297.0
democracy,11.0
greater,27.0
istandwithahme,133.0
terus,26.0
deray,12.0
mashallah,16.0
athleticism,16.0
apparently,76.0
congrats,155.0
mic,132.0
mit,197.0
coworker,41.0
taking,136.0
gaza,14.0
finished,11.0
multi,13.0
almost,50.0
reporting,24.0
add,48.0
ada,36.0
proper,13.0
confident,18.0
christians,20.0
4cfnh,57.0
jack,14.0
punishment,31.0
popsci,17.0
low,180.0
criminalization,43.0
clo,39.0
nyti,71.0
zwagger,23.0
toy,13.0
top,852.0
645555802636464129,18.0
toe,14.0
murder,17.0
though,121.0
plenty,17.0
hearts,80.0
lift,19.0
radio,101.0
announce,12.0
watch,1458.0
amazon,14.0
excel,11.0
cybersmile,27.0
games,54.0
quickly,36.0
expected,27.0
istand,53.0
kentucky,133.0
dept,20.0
dylan,13.0
mother,162.0
5h,67.0
judge,97.0
55,15.0
51,15.0
50,28.0
53,16.0
everything,349.0
civil,62.0
shines,20.0
complicit,20.0
coach,12.0
promoting,14.0
cnn,166.0
couches,11.0
peeps,16.0
handled,45.0
sports,38.0
happened,326.0
misogynoir,28.0
place,182.0
engineer,71.0
given,64.0
district,73.0
cemswjtqpgy,46.0
returns,35.0
gives,66.0
released,34.0
islamophobe,11.0
gadang,113.0
zendaya,280.0
outside,57.0
trip,25.0
ya,225.0
actions,58.0
pamelageller,30.0
seems,119.0
accepted,11.0
nails,15.0
sara,33.0
promote,24.0
artist,33.0
disq,17.0
chinese,129.0
remarkable,27.0
ticks,11.0
knows,139.0
glad,255.0
parable,19.0
bashir,34.0
explains,21.0
developed,18.0
stephen,21.0
marcus,11.0
spref,27.0
finding,11.0
76,30.0
70,13.0
nothing,832.0
investigate,28.0
765224162956832769,16.0
creating,130.0
political,82.0
rocking,20.0
disappointing,11.0
peoplem,13.0
workers,78.0
kryvyy,108.0
thedailybeast,70.0
shaped,12.0
firing,24.0
files,40.0
junior,15.0
raising,20.0
unwarranted,32.0
freak,14.0
mock,39.0
vigil,27.0
artvoice,113.0
vice,38.0
gullible,17.0
someday,16.0
goodies,42.0
plead,22.0
anywhere,25.0
instead,272.0
abuse,161.0
light,203.0
honestly,86.0
glenn,12.0
techcrunch,40.0
related,20.0
heartbreaking,35.0
birthday,52.0
classroom,24.0
shell,135.0
class,321.0
a6745706,13.0
watching,240.0
awww,12.0
inventive,13.0
amen,23.0
swift,12.0
mike,52.0
present,36.0
unlike,35.0
encouragement,12.0
unite,14.0
moms,10.0
automation,84.0
student,702.0
1ne9u3o,12.0
masih,13.0
racists,208.0
scared,58.0
swear,22.0
sweat,21.0
unpatriotic,17.0
jihad,33.0
tatus,630.0
huffington,35.0
zellieimani,18.0
brings,104.0
99,25.0
90,10.0
teroris,68.0
backpack,11.0
gabbydouglas,22.0
tahun,23.0
hmed,36.0
8200460,28.0
ront,23.0
coward,24.0
boston,22.0
shall,32.0
sexist,82.0
sexism,44.0
goodnight,27.0
2nd,30.0
lighthouse,103.0
1sjsd2,16.0
harmony,58.0
prison,85.0
remind,30.0
right,742.0
b1,23.0
instagr,379.0
falling,37.0
loving,92.0
muslimmatters,18.0
tock,17.0
coleman,12.0
course,125.0
smarter,30.0
colorlines,32.0
blk,16.0
quite,28.0
quits,11.0
training,54.0
punk,20.0
massive,19.0
inventor,115.0
2aw3fsp,11.0
sam,18.0
say,1071.0
saw,183.0
aside,13.0
jewish,16.0
pages,10.0
lovebscott,40.0
semaine,19.0
congressional,22.0
prime,11.0
jumped,77.0
dianggap,33.0
theguardian,96.0
bravo,36.0
reverse,252.0
summer,41.0
stranger,46.0
stone,18.0
terduga,26.0
fucks,21.0
via,2181.0
vid,17.0
vip,22.0
teen,801.0
plans,30.0
plane,16.0
greats,11.0
ncid,33.0
itu,28.0
ally,25.0
england,117.0
major,44.0
disrespected,17.0
defended,14.0
sayin,13.0
movie,696.0
barely,10.0
coincidence,20.0
modern,26.0
religion,128.0
standing,192.0
859821,11.0
concerned,36.0
involved,49.0
illegal,15.0
balls,14.0
amor,12.0
athlete,406.0
pour,39.0
pieces,22.0
destroying,13.0
normani,500.0
society,132.0
addictinginfo,13.0
behaved,10.0
elite,16.0
subject,35.0
03,17.0
96680,11.0
stronger,56.0
08,225.0
assholes,84.0
rough,15.0
lucky,67.0
harmonizers,11.0
extremists,12.0
explosive,23.0
waste,24.0
less,139.0
arrest,1151.0
five,64.0
cernovich,18.0
hiding,28.0
mere,12.0
idol,52.0
monday,33.0
chance,44.0
inspiration,920.0
clocked,22.0
foolishness,15.0
opportunities,46.0
ooker,12.0
tolerated,21.0
haha,95.0
striving,12.0
lah,13.0
lab,13.0
lay,13.0
las,12.0
fan,266.0
break,105.0
magical,19.0
ebay,26.0
forces,12.0
tough,35.0
bikin,24.0
relaxing,13.0
clearly,94.0
piazza,123.0
victim,183.0
humor,32.0
pls,64.0
marketing,55.0
plz,80.0
emotional,22.0
falsely,19.0
holding,22.0
sekolah,19.0
internees,12.0
revista,14.0
patriotic,58.0
club,28.0
write,32.0
heroes,16.0
whenever,14.0
arduino,20.0
discuss,30.0
james,16.0
shouldnt,16.0
brighter,19.0
terrific,18.0
begin,25.0
title,12.0
bigoted,35.0
learning,40.0
cares,51.0
return,53.0
worry,89.0
charges,53.0
charged,50.0
cj,16.0
thinking,100.0
malcolm,12.0
follows,14.0
authoritarian,35.0
gymnast,290.0
trained,11.0
countdown,12.0
vtjlaa,21.0
thread,29.0
rude,30.0
trendinalia,48.0
daniellericks,11.0
motivated,19.0
event,66.0
item,34.0
sheep,15.0
sta,735.0
stw,287.0
attention,236.0
philly,13.0
mobile,20.0
performances,18.0
basement,17.0
throwing,24.0
engineers,40.0
probably,124.0
bigots,101.0
dang,12.0
whatever,56.0
ambassador,36.0
claimed,644.0
siempre,11.0
uta,11.0
utm,1177.0
button,26.0
thkpr,16.0
addressed,18.0
control,58.0
contributions,52.0
front,36.0
princess,22.0
florida,65.0
playlist,37.0
privacy,41.0
need,895.0
outpouring,51.0
parenting,14.0
upset,46.0
soldiers,13.0
joins,52.0
computer,47.0
thedailystar,12.0
poem,13.0
diversity,113.0
skill,52.0
francisco,16.0
signed,10.0
piece,111.0
offensive,94.0
westminster,93.0
canada,68.0
segments,16.0
updates,645.0
force,44.0
japanese,58.0
lights,59.0
behavior,46.0
moral,16.0
answer,66.0
briefcase,123.0
baiting,33.0
better,596.0
differently,19.0
overcome,16.0
went,142.0
content,150.0
dgzmym,16.0
little,698.0
grade,34.0
silly,29.0
deserving,15.0
definitely,70.0
ending,17.0
wearing,48.0
1w8upyg,13.0
19,114.0
said,417.0
tolerance,183.0
targeting,25.0
topics,88.0
grown,44.0
grows,518.0
thoughts,74.0
left,726.0
background,25.0
bold,22.0
lied,22.0
lies,50.0
attached,14.0
daily,95.0
mile,12.0
milo,21.0
milk,13.0
show,768.0
disgusting,351.0
amaze,12.0
noticia,17.0
prof,12.0
shoe,10.0
guardian,47.0
canadian,16.0
useful,16.0
sharing,81.0
claim,60.0
nyp,20.0
staying,11.0
african,67.0
cathedral,220.0
irene,13.0
1gu7vl1,17.0
kkk,12.0
profiling,96.0
orologio,26.0
california,16.0
wanita,21.0
americans,206.0
theatre,73.0
especially,116.0
medalist,88.0
parent,33.0
everyday,73.0
pay,107.0
pak,11.0
running,27.0
mon,34.0
mom,194.0
laughing,19.0
road,19.0
spreading,26.0
refinery29,11.0
fellow,68.0
forget,287.0
disassembled,34.0
dailymotion,12.0
celebrity,56.0
nbcolympics,11.0
abc,49.0
share,242.0
balik,31.0
twimg,18.0
urself,11.0
good,1111.0
lovers,15.0
bully,86.0
prophet,17.0
statement,42.0
gotten,32.0
youtu,1013.0
outta,14.0
dancing,12.0
chester,100.0
faces,77.0
giant,32.0
wrongfully,14.0
leslie,1233.0
meeting,111.0
grit,11.0
dunia,65.0
yesterday,47.0
snap,11.0
big,661.0
often,36.0
143651499,16.0
continuing,11.0
drama,31.0
20160627,14.0
mcinnes,49.0
anthem,180.0
sink,39.0
proof,40.0
ajenews,28.0
nfluential,18.0
began,13.0
questlove,15.0
winning,103.0
dad,250.0
dan,73.0
dat,25.0
day,682.0
sadly,29.0
palestine,17.0
loved,349.0
compensation,22.0
kita,11.0
kits,15.0
exceptional,19.0
romantic,14.0
calling,93.0
routine,30.0
otherwise,72.0
tremendous,16.0
define,28.0
plain,24.0
helped,125.0
administration,16.0
practice,12.0
ios,54.0
ion,13.0
sets,34.0
position,10.0
fyi,20.0
inviting,55.0
soft,12.0
host,19.0
blessings,43.0
reminds,27.0
dangerous,105.0
deaths,12.0
thegamutt,16.0
shooting,28.0
astronomy,54.0
8th,11.0
sleep,15.0
army,25.0
seeks,17.0
changed,52.0
asses,26.0
whittle,39.0
writing,23.0
celebrating,18.0
driving,22.0
fref,15.0
free,162.0
765246446744502273,30.0
pope,24.0
queen,368.0
earth,64.0
adding,13.0
dedication,78.0
faced,21.0
faceb,12.0
hypocrites,12.0
bathroom,615.0
catch,32.0
detained,94.0
popsugar,18.0
accomplishments,147.0
ischool,15.0
fourteen,11.0
admiration,63.0
9351,10.0
3200466,20.0
younger,16.0
apologizing,14.0
serious,47.0
brother,63.0
yall,65.0
says,532.0
150917,12.0
male,59.0
trump,138.0
ones,100.0
sues,29.0
devastated,16.0
zuckerberg,95.0
view,50.0
white,1438.0
wide,13.0
creqa,32.0
multiple,24.0
hack,144.0
naked,13.0
republika,41.0
ignored,41.0
encourages,28.0
ignores,16.0
encouraged,47.0
suffer,14.0
26,25.0
como,19.0
come,447.0
reaction,54.0
summe,12.0
superstar,30.0
rathaus,111.0
44193755814342656,110.0
violent,30.0
2u,13.0
2x,14.0
loudest,15.0
10258,13.0
valley,92.0
calls,68.0
nbc,13.0
jangan,11.0
8l9qvp,12.0
suddenly,11.0
hoaxer,12.0
reflect,13.0
55fb8,20.0
harmless,12.0
hoping,28.0
generation,70.0
threat,180.0
radical,29.0
exploded,15.0
convinced,13.0
dans,18.0
greenwich,85.0
silent,42.0
arr,12.0
art,48.0
ara,13.0
dumb,135.0
2020,15.0
finds,21.0
abom,14.0
78coe,12.0
rip,17.0
rio,203.0
rih,108.0
ethnicity,14.0
moving,151.0
analysis,15.0
inspirational,71.0
sufism,17.0
violations,29.0
9gag,11.0
651195176824647680,13.0
bruh,17.0
called,283.0
towers,25.0
christ,16.0
showthread,10.0
wishes,25.0
383843121602560,12.0
waiting,67.0
metro,11.0
apple,122.0
tag,58.0
tai,11.0
panic,10.0
bye,36.0
tran,11.0
tqpgy,37.0
dallasnews,129.0
dukungan,30.0
kiera,27.0
838753295f9a,10.0
afraid,94.0
deny,15.0
thousands,49.0
dope,18.0
words,187.0
genius,220.0
closed,22.0
edmondcaldwell,20.0
withdraws,39.0
bbc,104.0
bby,144.0
socialshare,52.0
sultan,95.0
vintage,11.0
sky,30.0
sick,165.0
know,1232.0
dancer,40.0
nigga,17.0
leader,122.0
getting,378.0
ex,11.0
